rate.knit
…
library(readxl)
library(posterior)

## This is posterior version 0.1.4

source("functions.R")

workbook <- "scores.xlsx"
sheet <- "super-league"
sheet <- "championship"
sheet <- "league-1"
scores <- read_scores(workbook, sheet)
scores

## # A tibble: 21 x 4
##    t1        t2             s1    s2
##    <chr>     <chr>       <int> <int>
##  1 Barrow    Keighley       40    18
##  2 Barrow    North Wales    44     8
##  3 Coventry  Barrow         20    38
##  4 Coventry  Rochdale       38    30
##  5 Coventry  Skolars        26    44
##  6 Doncaster Rochdale       30    22
##  7 Doncaster West Wales     62    24
##  8 Hunslet   Barrow          6    29
##  9 Hunslet   Rochdale       36    43
## 10 Hunslet   Workington     16    28
## #  with 11 more rows
…
convert team names to numbers

scores %>% 
  left_join(lookup, by = c("t1"="team")) %>% 
  left_join(lookup, by = c("t2"="team")) %>% 
  select(t1 = id.x, t2 = id.y, s1, s2) -> scores_stan
scores_stan

## # A tibble: 21 x 4
##       t1    t2    s1    s2
##    <int> <int> <int> <int>
##  1     1     5    40    18
##  2     1     6    44     8
##  3     2     1    20    38
##  4     2     7    38    30
##  5     2     8    26    44
##  6     3     7    30    22
##  7     3     9    62    24
##  8     4     1     6    29
##  9     4     7    36    43
## 10     4    10    16    28
## #  with 11 more rows

make stan dataset

scores_stan

## # A tibble: 21 x 4
##       t1    t2    s1    s2
##    <int> <int> <int> <int>
##  1     1     5    40    18
##  2     1     6    44     8
##  3     2     1    20    38
##  4     2     7    38    30
##  5     2     8    26    44
##  6     3     7    30    22
##  7     3     9    62    24
##  8     4     1     6    29
##  9     4     7    36    43
## 10     4    10    16    28
## #  with 11 more rows
…
       k = draws$k,
       r1 = rat1,
       r2 = rat2) %>% 
  mutate(diff = r1 - r2) -> my_draws
nr <- nrow(my_draws)
my_draws %>% 
  mutate(eta1 = h + k + diff, 
         eta2 = k - diff,
         mu1 = exp(eta1),
         mu2 = exp(eta2),
         sc1 = rpois(nr, mu1),
         sc2 = rpois(nr, mu2)) -> ppd
ppd

## # A tibble: 4,000 x 11
##          h     k     r1      r2   diff  eta1  eta2   mu1   mu2   sc1   sc2
##      <dbl> <dbl>  <dbl>   <dbl>  <dbl> <dbl> <dbl> <dbl> <dbl> <int> <int>
##  1 -0.0236  3.30  0.402  0.0303 0.371   3.65  2.93  38.3  18.7    40    22
##  2 -0.0208  3.30  0.274  0.231  0.0432  3.32  3.26  27.7  26.0    24    28
##  3 -0.0209  3.30  0.382  0.0607 0.321   3.60  2.98  36.6  19.6    31    17
##  4 -0.0240  3.32  0.749  0.550  0.199   3.50  3.12  33.1  22.8    33    27
##  5 -0.0145  3.32  0.651  0.421  0.230   3.54  3.09  34.3  22.0    34    28
##  6 -0.0213  3.31  0.659  0.356  0.303   3.59  3.01  36.4  20.3    38    22
##  7 -0.0213  3.31  0.678  0.607  0.0713  3.36  3.24  28.8  25.6    35    33
##  8 -0.0181  3.32  0.775  0.605  0.169   3.47  3.15  32.2  23.4    46    21
##  9 -0.0114  3.30 -2.58  -2.74   0.160   3.45  3.14  31.5  23.2    33    25
## 10  0.0259  3.33 -2.20  -2.35   0.147   3.50  3.18  33.1  24.0    34    24
## #  with 3,990 more rows
…
